%YAML 1.1
%TAG !u! tag:unity3d.com,2011:
--- !u!114 &11400000
MonoBehaviour:
  m_ObjectHideFlags: 0
  m_CorrespondingSourceObject: {fileID: 0}
  m_PrefabInstance: {fileID: 0}
  m_PrefabAsset: {fileID: 0}
  m_GameObject: {fileID: 0}
  m_Enabled: 1
  m_EditorHideFlags: 0
  m_Script: {fileID: 11500000, guid: 8e6292b2c06870d4495f009f912b9600, type: 3}
  m_Name: PPP
  m_EditorClassIdentifier: 
  settings:
  - {fileID: 114231276498304246}
  - {fileID: 114780477691602452}
--- !u!114 &114231276498304246
MonoBehaviour:
  m_ObjectHideFlags: 3
  m_CorrespondingSourceObject: {fileID: 0}
  m_PrefabInstance: {fileID: 0}
  m_PrefabAsset: {fileID: 0}
  m_GameObject: {fileID: 0}
  m_Enabled: 1
  m_EditorHideFlags: 0
  m_Script: {fileID: 11500000, guid: 556797029e73b2347956b6579e77e05b, type: 3}
  m_Name: DepthOfField
  m_EditorClassIdentifier: 
  active: 1
  enabled:
    overrideState: 1
    value: 1
  focusDistance:
    overrideState: 1
    value: 19.84
  aperture:
    overrideState: 1
    value: 5.09
  focalLength:
    overrideState: 1
    value: 71.1
  kernelSize:
    overrideState: 0
    value: 3
--- !u!114 &114780477691602452
MonoBehaviour:
  m_ObjectHideFlags: 3
  m_CorrespondingSourceObject: {fileID: 0}
  m_PrefabInstance: {fileID: 0}
  m_PrefabAsset: {fileID: 0}
  m_GameObject: {fileID: 0}
  m_Enabled: 1
  m_EditorHideFlags: 0
  m_Script: {fileID: 11500000, guid: 48a79b01ea5641d4aa6daa2e23605641, type: 3}
  m_Name: Bloom
  m_EditorClassIdentifier: 
  active: 1
  enabled:
    overrideState: 1
    value: 1
  intensity:
    overrideState: 1
    value: 47.52
  threshold:
    overrideState: 1
    value: 1.85
  softKnee:
    overrideState: 1
    value: 0.751
  clamp:
    overrideState: 0
    value: 65472
  diffusion:
    overrideState: 0
    value: 7
  anamorphicRatio:
    overrideState: 0
    value: 0
  color:
    overrideState: 1
    value: {r: 0.9150943, g: 0.012949424, b: 0.012949424, a: 1}
  fastMode:
    overrideState: 0
    value: 0
  dirtTexture:
    overrideState: 0
    value: {fileID: 0}
    defaultState: 1
  dirtIntensity:
    overrideState: 0
    value: 0
